<svg width="42" height="70" viewBox="0 0 42 70" fill="none" xmlns="http://www.w3.org/2000/svg">
<path d="M0 4.94118V4.06275C0 4.06275 7.39768 3.32379 11.9048 1.86667C12.3543 1.72135 12.7746 1.58184 13.1745 1.44913C15.8003 0.577677 17.5411 -5.67293e-05 20.8333 4.17827e-09C23.772 5.06591e-05 25.1983 0.519228 27.6611 1.41568C28.0489 1.55683 28.4625 1.70737 28.9116 1.86667C33.0694 3.34145 41.6667 4.06275 41.6667 4.06275V4.94118H0Z" fill="#A95D2B"/>
<path d="M6.66667 14H14.1667V32.1176H6.66667V14Z" fill="#A95D2B"/>
<path d="M6.66667 41.1765H14.1667V59.2941H6.66667V41.1765Z" fill="#A95D2B"/>
<path fill-rule="evenodd" clip-rule="evenodd" d="M20 6.58824H0V66.7059H5C5 68.5252 6.11929 70 7.5 70C8.88071 70 10 68.5252 10 66.7059H20V6.58824ZM18.3333 36.6471C18.3333 37.3293 17.7737 37.8824 17.0833 37.8824C16.393 37.8824 15.8333 37.3293 15.8333 36.6471C15.8333 35.9648 16.393 35.4118 17.0833 35.4118C17.7737 35.4118 18.3333 35.9648 18.3333 36.6471ZM5 12.3529H15.8333V33.7647H5V12.3529ZM5 39.5294H15.8333V60.9412H5V39.5294Z" fill="#A95D2B"/>
<path d="M27.5 41.1765H35V59.2941H27.5V41.1765Z" fill="#A95D2B"/>
<path d="M27.5 14H35V32.1176H27.5V14Z" fill="#A95D2B"/>
<path fill-rule="evenodd" clip-rule="evenodd" d="M41.6667 6.58824H21.6667V66.7059H31.6667C31.6667 68.5252 32.786 70 34.1667 70C35.5474 70 36.6667 68.5252 36.6667 66.7059H41.6667V6.58824ZM25.8333 36.6471C25.8333 37.3293 25.2737 37.8824 24.5833 37.8824C23.893 37.8824 23.3333 37.3293 23.3333 36.6471C23.3333 35.9648 23.893 35.4118 24.5833 35.4118C25.2737 35.4118 25.8333 35.9648 25.8333 36.6471ZM36.6667 39.5294H25.8333V60.9412H36.6667V39.5294ZM25.8333 12.3529H36.6667V33.7647H25.8333V12.3529Z" fill="#A95D2B"/>
</svg>
